ROLL: -0.00851 PITCH: 0.07528 YAW: 6.09897 SONAR1: 0.00000 MEDIANFILTERED: 0.00000 MEDIANDIFF: 0.00000 MEDIANINT: 0.00000 RAWSONAR: 0.00000 ROLLRATE: 0.01000 PITCHRATE: 0.02000 U1: 0.01000 U2: 0.02000 U3: 0.00000 U4: 0.00000 MDuty1: 0 MDuty2: 0 MDuty3: 0 MDuty4: 0 ChDuty1: 257492 ChDuty2: 228563 ChDuty3: 229563 ChDuty4: 12 DesiredAltitude: 1.00 HoverMode: 1.000000 flightAllow: 1.000000  TIME:Wed Jul  3 15:56:32 2013

ROLL: -0.00851 PITCH: 0.07528 YAW: 6.09897 SONAR1: 0.00000 MEDIANFILTERED: 0.00000 MEDIANDIFF: 0.00000 MEDIANINT: 0.00000 RAWSONAR: 0.00000 ROLLRATE: 0.01000 PITCHRATE: 0.02000 U1: 0.01000 U2: 0.02000 U3: 0.00000 U4: 0.00000 MDuty1: 0 MDuty2: 0 MDuty3: 0 MDuty4: 0 ChDuty1: 257492 ChDuty2: 228563 ChDuty3: 229563 ChDuty4: 12 DesiredAltitude: 1.00 HoverMode: 1.000000 flightAllow: 1.000000  TIME:Wed Jul  3 15:56:32 2013

ROLL: -0.00851 PITCH: 0.07528 YAW: 6.09897 SONAR1: 0.00000 MEDIANFILTERED: 0.00000 MEDIANDIFF: 0.00000 MEDIANINT: 0.00000 RAWSONAR: 0.00000 ROLLRATE: 0.01000 PITCHRATE: 0.02000 U1: 0.01000 U2: 0.02000 U3: 0.00000 U4: 0.00000 MDuty1: 0 MDuty2: 0 MDuty3: 0 MDuty4: 0 ChDuty1: 257492 ChDuty2: 228563 ChDuty3: 229563 ChDuty4: 12 DesiredAltitude: 1.00 HoverMode: 1.000000 flightAllow: 1.000000  TIME:Wed Jul  3 15:56:33 2013

ROLL: -0.00851 PITCH: 0.07528 YAW: 6.09897 SONAR1: 0.00000 MEDIANFILTERED: 0.00000 MEDIANDIFF: 0.00000 MEDIANINT: 0.00000 RAWSONAR: 0.00000 ROLLRATE: 0.01000 PITCHRATE: 0.02000 U1: 0.01000 U2: 0.02000 U3: 0.00000 U4: 0.00000 MDuty1: 0 MDuty2: 0 MDuty3: 0 MDuty4: 0 ChDuty1: 257492 ChDuty2: 228563 ChDuty3: 229563 ChDuty4: 12 DesiredAltitude: 1.00 HoverMode: 1.000000 flightAllow: 1.000000  TIME:Wed Jul  3 15:56:33 2013

ROLL: -0.00851 PITCH: 0.07528 YAW: 6.09897 SONAR1: 0.00000 MEDIANFILTERED: 0.00000 MEDIANDIFF: 0.00000 MEDIANINT: 0.00000 RAWSONAR: 0.00000 ROLLRATE: 0.01000 PITCHRATE: 0.02000 U1: 0.01000 U2: 0.02000 U3: 0.00000 U4: 0.00000 MDuty1: 0 MDuty2: 0 MDuty3: 0 MDuty4: 0 ChDuty1: 257492 ChDuty2: 228563 ChDuty3: 229563 ChDuty4: 12 DesiredAltitude: 1.00 HoverMode: 1.000000 flightAllow: 1.000000  TIME:Wed Jul  3 15:56:33 2013

ROLL: -0.00851 PITCH: 0.07528 YAW: 6.09897 SONAR1: 0.00000 MEDIANFILTERED: 0.00000 MEDIANDIFF: 0.00000 MEDIANINT: 0.00000 RAWSONAR: 0.00000 ROLLRATE: 0.01000 PITCHRATE: 0.02000 U1: 0.01000 U2: 0.02000 U3: 0.00000 U4: 0.00000 MDuty1: 0 MDuty2: 0 MDuty3: 0 MDuty4: 0 ChDuty1: 257492 ChDuty2: 228563 ChDuty3: 229563 ChDuty4: 12 DesiredAltitude: 1.00 HoverMode: 1.000000 flightAllow: 1.000000  TIME:Wed Jul  3 15:56:33 2013

ROLL: -0.00851 PITCH: 0.07528 YAW: 6.09897 SONAR1: 0.00000 MEDIANFILTERED: 0.00000 MEDIANDIFF: 0.00000 MEDIANINT: 0.00000 RAWSONAR: 0.00000 ROLLRATE: 0.01000 PITCHRATE: 0.02000 U1: 0.01000 U2: 0.02000 U3: 0.00000 U4: 0.00000 MDuty1: 0 MDuty2: 0 MDuty3: 0 MDuty4: 0 ChDuty1: 257492 ChDuty2: 228563 ChDuty3: 229563 ChDuty4: 12 DesiredAltitude: 1.00 HoverMode: 1.000000 flightAllow: 1.000000  TIME:Wed Jul  3 15:56:33 2013

ROLL: -0.00851 PITCH: 0.07528 YAW: 6.09897 SONAR1: 0.00000 MEDIANFILTERED: 0.00000 MEDIANDIFF: 0.00000 MEDIANINT: 0.00000 RAWSONAR: 0.00000 ROLLRATE: 0.01000 PITCHRATE: 0.02000 U1: 0.01000 U2: 0.02000 U3: 0.00000 U4: 0.00000 MDuty1: 0 MDuty2: 0 MDuty3: 0 MDuty4: 0 ChDuty1: 257492 ChDuty2: 228563 ChDuty3: 229563 ChDuty4: 12 DesiredAltitude: 1.00 HoverMode: 1.000000 flightAllow: 1.000000  TIME:Wed Jul  3 15:56:33 2013

ROLL: -0.00851 PITCH: 0.07528 YAW: 6.09897 SONAR1: 0.00000 MEDIANFILTERED: 0.00000 MEDIANDIFF: 0.00000 MEDIANINT: 0.00000 RAWSONAR: 0.00000 ROLLRATE: 0.01000 PITCHRATE: 0.02000 U1: 0.01000 U2: 0.02000 U3: 0.00000 U4: 0.00000 MDuty1: 0 MDuty2: 0 MDuty3: 0 MDuty4: 0 ChDuty1: 257492 ChDuty2: 228563 ChDuty3: 229563 ChDuty4: 12 DesiredAltitude: 1.00 HoverMode: 1.000000 flightAllow: 1.000000  TIME:Wed Jul  3 15:56:33 2013

ROLL: -0.00851 PITCH: 0.07528 YAW: 6.09897 SONAR1: 0.00000 MEDIANFILTERED: 0.00000 MEDIANDIFF: 0.00000 MEDIANINT: 0.00000 RAWSONAR: 0.00000 ROLLRATE: 0.01000 PITCHRATE: 0.02000 U1: 0.01000 U2: 0.02000 U3: 0.00000 U4: 0.00000 MDuty1: 0 MDuty2: 0 MDuty3: 0 MDuty4: 0 ChDuty1: 257492 ChDuty2: 228563 ChDuty3: 229563 ChDuty4: 12 DesiredAltitude: 1.00 HoverMode: 1.000000 flightAllow: 1.000000  TIME:Wed Jul  3 15:56:33 2013

ROLL: -0.00851 PITCH: 0.07528 YAW: 6.09897 SONAR1: 0.00000 MEDIANFILTERED: 0.00000 MEDIANDIFF: 0.00000 MEDIANINT: 0.00000 RAWSONAR: 0.00000 ROLLRATE: 0.01000 PITCHRATE: 0.02000 U1: 0.01000 U2: 0.02000 U3: 0.00000 U4: 0.00000 MDuty1: 0 MDuty2: 0 MDuty3: 0 MDuty4: 0 ChDuty1: 257492 ChDuty2: 228563 ChDuty3: 229563 ChDuty4: 12 DesiredAltitude: 1.00 HoverMode: 1.000000 flightAllow: 1.000000  TIME:Wed Jul  3 15:56:33 2013

ROLL: -0.00851 PITCH: 0.07528 YAW: 6.09897 SONAR1: 0.00000 MEDIANFILTERED: 0.00000 MEDIANDIFF: 0.00000 MEDIANINT: 0.00000 RAWSONAR: 0.00000 ROLLRATE: 0.01000 PITCHRATE: 0.02000 U1: 0.01000 U2: 0.02000 U3: 0.00000 U4: 0.00000 MDuty1: 0 MDuty2: 0 MDuty3: 0 MDuty4: 0 ChDuty1: 257492 ChDuty2: 228563 ChDuty3: 229563 ChDuty4: 12 DesiredAltitude: 1.00 HoverMode: 1.000000 flightAllow: 1.000000  TIME:Wed Jul  3 15:56:33 2013

ROLL: -0.00851 PITCH: 0.07528 YAW: 6.09897 SONAR1: 0.00000 MEDIANFILTERED: 0.00000 MEDIANDIFF: 0.00000 MEDIANINT: 0.00000 RAWSONAR: 0.00000 ROLLRATE: 0.01000 PITCHRATE: 0.02000 U1: 0.01000 U2: 0.02000 U3: 0.00000 U4: 0.00000 MDuty1: 0 MDuty2: 0 MDuty3: 0 MDuty4: 0 ChDuty1: 257492 ChDuty2: 228563 ChDuty3: 229563 ChDuty4: 12 DesiredAltitude: 1.00 HoverMode: 1.000000 flightAllow: 1.000000  TIME:Wed Jul  3 15:56:34 2013

ROLL: -0.00851 PITCH: 0.07528 YAW: 6.09897 SONAR1: 0.00000 MEDIANFILTERED: 0.00000 MEDIANDIFF: 0.00000 MEDIANINT: 0.00000 RAWSONAR: 0.00000 ROLLRATE: 0.01000 PITCHRATE: 0.02000 U1: 0.01000 U2: 0.02000 U3: 0.00000 U4: 0.00000 MDuty1: 0 MDuty2: 0 MDuty3: 0 MDuty4: 0 ChDuty1: 257492 ChDuty2: 228563 ChDuty3: 229563 ChDuty4: 12 DesiredAltitude: 1.00 HoverMode: 1.000000 flightAllow: 1.000000  TIME:Wed Jul  3 15:56:34 2013

ROLL: -0.00851 PITCH: 0.07528 YAW: 6.09897 SONAR1: 0.00000 MEDIANFILTERED: 0.00000 MEDIANDIFF: 0.00000 MEDIANINT: 0.00000 RAWSONAR: 0.00000 ROLLRATE: 0.01000 PITCHRATE: 0.02000 U1: 0.01000 U2: 0.02000 U3: 0.00000 U4: 0.00000 MDuty1: 0 MDuty2: 0 MDuty3: 0 MDuty4: 0 ChDuty1: 257492 ChDuty2: 228563 ChDuty3: 229563 ChDuty4: 12 DesiredAltitude: 1.00 HoverMode: 1.000000 flightAllow: 1.000000  TIME:Wed Jul  3 15:56:34 2013

ROLL: -0.00851 PITCH: 0.07528 YAW: 6.09897 SONAR1: 0.00000 MEDIANFILTERED: 0.00000 MEDIANDIFF: 0.00000 MEDIANINT: 0.00000 RAWSONAR: 0.00000 ROLLRATE: 0.01000 PITCHRATE: 0.02000 U1: 0.01000 U2: 0.02000 U3: 0.00000 U4: 0.00000 MDuty1: 0 MDuty2: 0 MDuty3: 0 MDuty4: 0 ChDuty1: 257492 ChDuty2: 228563 ChDuty3: 229563 ChDuty4: 12 DesiredAltitude: 1.00 HoverMode: 1.000000 flightAllow: 1.000000  TIME:Wed Jul  3 15:56:34 2013

ROLL: -0.00851 PITCH: 0.07528 YAW: 6.09897 SONAR1: 0.00000 MEDIANFILTERED: 0.00000 MEDIANDIFF: 0.00000 MEDIANINT: 0.00000 RAWSONAR: 0.00000 ROLLRATE: 0.01000 PITCHRATE: 0.02000 U1: 0.01000 U2: 0.02000 U3: 0.00000 U4: 0.00000 MDuty1: 0 MDuty2: 0 MDuty3: 0 MDuty4: 0 ChDuty1: 257492 ChDuty2: 228563 ChDuty3: 229563 ChDuty4: 12 DesiredAltitude: 1.00 HoverMode: 1.000000 flightAllow: 1.000000  TIME:Wed Jul  3 15:56:34 2013

ROLL: -0.00851 PITCH: 0.07528 YAW: 6.09897 SONAR1: 0.00000 MEDIANFILTERED: 0.00000 MEDIANDIFF: 0.00000 MEDIANINT: 0.00000 RAWSONAR: 0.00000 ROLLRATE: 0.01000 PITCHRATE: 0.02000 U1: 0.01000 U2: 0.02000 U3: 0.00000 U4: 0.00000 MDuty1: 0 MDuty2: 0 MDuty3: 0 MDuty4: 0 ChDuty1: 257492 ChDuty2: 228563 ChDuty3: 229563 ChDuty4: 12 DesiredAltitude: 1.00 HoverMode: 1.000000 flightAllow: 1.000000  TIME:Wed Jul  3 15:56:34 2013

ROLL: -0.00851 PITCH: 0.07528 YAW: 6.09897 SONAR1: 0.00000 MEDIANFILTERED: 0.00000 MEDIANDIFF: 0.00000 MEDIANINT: 0.00000 RAWSONAR: 0.00000 ROLLRATE: 0.01000 PITCHRATE: 0.02000 U1: 0.01000 U2: 0.02000 U3: 0.00000 U4: 0.00000 MDuty1: 0 MDuty2: 0 MDuty3: 0 MDuty4: 0 ChDuty1: 257492 ChDuty2: 228563 ChDuty3: 229563 ChDuty4: 12 DesiredAltitude: 1.00 HoverMode: 1.000000 flightAllow: 1.000000  TIME:Wed Jul  3 15:56:34 2013

ROLL: -0.00851 PITCH: 0.07528 YAW: 6.09897 SONAR1: 0.00000 MEDIANFILTERED: 0.00000 MEDIANDIFF: 0.00000 MEDIANINT: 0.00000 RAWSONAR: 0.00000 ROLLRATE: 0.01000 PITCHRATE: 0.02000 U1: 0.01000 U2: 0.02000 U3: 0.00000 U4: 0.00000 MDuty1: 0 MDuty2: 0 MDuty3: 0 MDuty4: 0 ChDuty1: 257492 ChDuty2: 228563 ChDuty3: 229563 ChDuty4: 12 DesiredAltitude: 1.00 HoverMode: 1.000000 flightAllow: 1.000000  TIME:Wed Jul  3 15:56:34 2013

ROLL: -0.00851 PITCH: 0.07528 YAW: 6.09897 SONAR1: 0.00000 MEDIANFILTERED: 0.00000 MEDIANDIFF: 0.00000 MEDIANINT: 0.00000 RAWSONAR: 0.00000 ROLLRATE: 0.01000 PITCHRATE: 0.02000 U1: 0.01000 U2: 0.02000 U3: 0.00000 U4: 0.00000 MDuty1: 0 MDuty2: 0 MDuty3: 0 MDuty4: 0 ChDuty1: 257492 ChDuty2: 228563 ChDuty3: 229563 ChDuty4: 12 DesiredAltitude: 1.00 HoverMode: 1.000000 flightAllow: 1.000000  TIME:Wed Jul  3 15:56:34 2013

ROLL: -0.00851 PITCH: 0.07528 YAW: 6.09897 SONAR1: 0.00000 MEDIANFILTERED: 0.00000 MEDIANDIFF: 0.00000 MEDIANINT: 0.00000 RAWSONAR: 0.00000 ROLLRATE: 0.01000 PITCHRATE: 0.02000 U1: 0.01000 U2: 0.02000 U3: 0.00000 U4: 0.00000 MDuty1: 0 MDuty2: 0 MDuty3: 0 MDuty4: 0 ChDuty1: 257492 ChDuty2: 228563 ChDuty3: 229563 ChDuty4: 12 DesiredAltitude: 1.00 HoverMode: 1.000000 flightAllow: 1.000000  TIME:Wed Jul  3 15:56:34 2013

ROLL: -0.00851 PITCH: 0.07528 YAW: 6.09897 SONAR1: 0.00000 MEDIANFILTERED: 0.00000 MEDIANDIFF: 0.00000 MEDIANINT: 0.00000 RAWSONAR: 0.00000 ROLLRATE: 0.01000 PITCHRATE: 0.02000 U1: 0.01000 U2: 0.02000 U3: 0.00000 U4: 0.00000 MDuty1: 0 MDuty2: 0 MDuty3: 0 MDuty4: 0 ChDuty1: 257492 ChDuty2: 228563 ChDuty3: 229563 ChDuty4: 12 DesiredAltitude: 1.00 HoverMode: 1.000000 flightAllow: 1.000000  TIME:Wed Jul  3 15:56:35 2013

ROLL: -0.00851 PITCH: 0.07528 YAW: 6.09897 SONAR1: 0.00000 MEDIANFILTERED: 0.00000 MEDIANDIFF: 0.00000 MEDIANINT: 0.00000 RAWSONAR: 0.00000 ROLLRATE: 0.01000 PITCHRATE: 0.02000 U1: 0.01000 U2: 0.02000 U3: 0.00000 U4: 0.00000 MDuty1: 0 MDuty2: 0 MDuty3: 0 MDuty4: 0 ChDuty1: 257492 ChDuty2: 228563 ChDuty3: 229563 ChDuty4: 12 DesiredAltitude: 1.00 HoverMode: 1.000000 flightAllow: 1.000000  TIME:Wed Jul  3 15:56:35 2013

ROLL: -0.00851 PITCH: 0.07528 YAW: 6.09897 SONAR1: 0.00000 MEDIANFILTERED: 0.00000 MEDIANDIFF: 0.00000 MEDIANINT: 0.00000 RAWSONAR: 0.00000 ROLLRATE: 0.01000 PITCHRATE: 0.02000 U1: 0.01000 U2: 0.02000 U3: 0.00000 U4: 0.00000 MDuty1: 0 MDuty2: 0 MDuty3: 0 MDuty4: 0 ChDuty1: 257492 ChDuty2: 228563 ChDuty3: 229563 ChDuty4: 12 DesiredAltitude: 1.00 HoverMode: 1.000000 flightAllow: 1.000000  TIME:Wed Jul  3 15:56:35 2013

ROLL: -0.00851 PITCH: 0.07528 YAW: 6.09897 SONAR1: 0.00000 MEDIANFILTERED: 0.00000 MEDIANDIFF: 0.00000 MEDIANINT: 0.00000 RAWSONAR: 0.00000 ROLLRATE: 0.01000 PITCHRATE: 0.02000 U1: 0.01000 U2: 0.02000 U3: 0.00000 U4: 0.00000 MDuty1: 0 MDuty2: 0 MDuty3: 0 MDuty4: 0 ChDuty1: 257492 ChDuty2: 228563 ChDuty3: 229563 ChDuty4: 12 DesiredAltitude: 1.00 HoverMode: 1.000000 flightAllow: 1.000000  TIME:Wed Jul  3 15:56:35 2013

ROLL: -0.00851 PITCH: 0.07528 YAW: 6.09897 SONAR1: 0.00000 MEDIANFILTERED: 0.00000 MEDIANDIFF: 0.00000 MEDIANINT: 0.00000 RAWSONAR: 0.00000 ROLLRATE: 0.01000 PITCHRATE: 0.02000 U1: 0.01000 U2: 0.02000 U3: 0.00000 U4: 0.00000 MDuty1: 0 MDuty2: 0 MDuty3: 0 MDuty4: 0 ChDuty1: 257492 ChDuty2: 228563 ChDuty3: 229563 ChDuty4: 12 DesiredAltitude: 1.00 HoverMode: 1.000000 flightAllow: 1.000000  TIME:Wed Jul  3 15:56:35 2013

ROLL: -0.00851 PITCH: 0.07528 YAW: 6.09897 SONAR1: 0.00000 MEDIANFILTERED: 0.00000 MEDIANDIFF: 0.00000 MEDIANINT: 0.00000 RAWSONAR: 0.00000 ROLLRATE: 0.01000 PITCHRATE: 0.02000 U1: 0.01000 U2: 0.02000 U3: 0.00000 U4: 0.00000 MDuty1: 0 MDuty2: 0 MDuty3: 0 MDuty4: 0 ChDuty1: 257492 ChDuty2: 228563 ChDuty3: 229563 ChDuty4: 12 DesiredAltitude: 1.00 HoverMode: 1.000000 flightAllow: 1.000000  TIME:Wed Jul  3 15:56:35 2013

ROLL: -0.00851 PITCH: 0.07528 YAW: 6.09897 SONAR1: 0.00000 MEDIANFILTERED: 0.00000 MEDIANDIFF: 0.00000 MEDIANINT: 0.00000 RAWSONAR: 0.00000 ROLLRATE: 0.01000 PITCHRATE: 0.02000 U1: 0.01000 U2: 0.02000 U3: 0.00000 U4: 0.00000 MDuty1: 0 MDuty2: 0 MDuty3: 0 MDuty4: 0 ChDuty1: 257492 ChDuty2: 228563 ChDuty3: 229563 ChDuty4: 12 DesiredAltitude: 1.00 HoverMode: 1.000000 flightAllow: 1.000000  TIME:Wed Jul  3 15:56:35 2013

ROLL: -0.00851 PITCH: 0.07528 YAW: 6.09897 SONAR1: 0.00000 MEDIANFILTERED: 0.00000 MEDIANDIFF: 0.00000 MEDIANINT: 0.00000 RAWSONAR: 0.00000 ROLLRATE: 0.01000 PITCHRATE: 0.02000 U1: 0.01000 U2: 0.02000 U3: 0.00000 U4: 0.00000 MDuty1: 0 MDuty2: 0 MDuty3: 0 MDuty4: 0 ChDuty1: 257492 ChDuty2: 228563 ChDuty3: 229563 ChDuty4: 12 DesiredAltitude: 1.00 HoverMode: 1.000000 flightAllow: 1.000000  TIME:Wed Jul  3 15:56:35 2013

ROLL: -0.00851 PITCH: 0.07528 YAW: 6.09897 SONAR1: 0.00000 MEDIANFILTERED: 0.00000 MEDIANDIFF: 0.00000 MEDIANINT: 0.00000 RAWSONAR: 0.00000 ROLLRATE: 0.01000 PITCHRATE: 0.02000 U1: 0.01000 U2: 0.02000 U3: 0.00000 U4: 0.00000 MDuty1: 0 MDuty2: 0 MDuty3: 0 MDuty4: 0 ChDuty1: 257492 ChDuty2: 228563 ChDuty3: 229563 ChDuty4: 12 DesiredAltitude: 1.00 HoverMode: 1.000000 flightAllow: 1.000000  TIME:Wed Jul  3 15:56:35 2013

ROLL: -0.00851 PITCH: 0.07528 YAW: 6.09897 SONAR1: 0.00000 MEDIANFILTERED: 0.00000 MEDIANDIFF: 0.00000 MEDIANINT: 0.00000 RAWSONAR: 0.00000 ROLLRATE: 0.01000 PITCHRATE: 0.02000 U1: 0.01000 U2: 0.02000 U3: 0.00000 U4: 0.00000 MDuty1: 0 MDuty2: 0 MDuty3: 0 MDuty4: 0 ChDuty1: 257492 ChDuty2: 228563 ChDuty3: 229563 ChDuty4: 12 DesiredAltitude: 1.00 HoverMode: 1.000000 flightAllow: 1.000000  TIME:Wed Jul  3 15:56:35 2013

ROLL: -0.00851 PITCH: 0.07528 YAW: 6.09897 SONAR1: 0.00000 MEDIANFILTERED: 0.00000 MEDIANDIFF: 0.00000 MEDIANINT: 0.00000 RAWSONAR: 0.00000 ROLLRATE: 0.01000 PITCHRATE: 0.02000 U1: 0.01000 U2: 0.02000 U3: 0.00000 U4: 0.00000 MDuty1: 0 MDuty2: 0 MDuty3: 0 MDuty4: 0 ChDuty1: 257492 ChDuty2: 228563 ChDuty3: 229563 ChDuty4: 12 DesiredAltitude: 1.00 HoverMode: 1.000000 flightAllow: 1.000000  TIME:Wed Jul  3 15:56:36 2013

ROLL: -0.00851 PITCH: 0.07528 YAW: 6.09897 SONAR1: 0.00000 MEDIANFILTERED: 0.00000 MEDIANDIFF: 0.00000 MEDIANINT: 0.00000 RAWSONAR: 0.00000 ROLLRATE: 0.01000 PITCHRATE: 0.02000 U1: 0.01000 U2: 0.02000 U3: 0.00000 U4: 0.00000 MDuty1: 0 MDuty2: 0 MDuty3: 0 MDuty4: 0 ChDuty1: 257492 ChDuty2: 228563 ChDuty3: 229563 ChDuty4: 12 DesiredAltitude: 1.00 HoverMode: 1.000000 flightAllow: 1.000000  TIME:Wed Jul  3 15:56:36 2013

ROLL: -0.00851 PITCH: 0.07528 YAW: 6.09897 SONAR1: 0.00000 MEDIANFILTERED: 0.00000 MEDIANDIFF: 0.00000 MEDIANINT: 0.00000 RAWSONAR: 0.00000 ROLLRATE: 0.01000 PITCHRATE: 0.02000 U1: 0.01000 U2: 0.02000 U3: 0.00000 U4: 0.00000 MDuty1: 0 MDuty2: 0 MDuty3: 0 MDuty4: 0 ChDuty1: 257492 ChDuty2: 228563 ChDuty3: 229563 ChDuty4: 12 DesiredAltitude: 1.00 HoverMode: 1.000000 flightAllow: 1.000000  TIME:Wed Jul  3 15:56:36 2013

ROLL: -0.00851 PITCH: 0.07528 YAW: 6.09897 SONAR1: 0.00000 MEDIANFILTERED: 0.00000 MEDIANDIFF: 0.00000 MEDIANINT: 0.00000 RAWSONAR: 0.00000 ROLLRATE: 0.01000 PITCHRATE: 0.02000 U1: 0.01000 U2: 0.02000 U3: 0.00000 U4: 0.00000 MDuty1: 0 MDuty2: 0 MDuty3: 0 MDuty4: 0 ChDuty1: 257492 ChDuty2: 228563 ChDuty3: 229563 ChDuty4: 12 DesiredAltitude: 1.00 HoverMode: 1.000000 flightAllow: 1.000000  TIME:Wed Jul  3 15:56:36 2013

ROLL: -0.00851 PITCH: 0.07528 YAW: 6.09897 SONAR1: 0.00000 MEDIANFILTERED: 0.00000 MEDIANDIFF: 0.00000 MEDIANINT: 0.00000 RAWSONAR: 0.00000 ROLLRATE: 0.01000 PITCHRATE: 0.02000 U1: 0.01000 U2: 0.02000 U3: 0.00000 U4: 0.00000 MDuty1: 0 MDuty2: 0 MDuty3: 0 MDuty4: 0 ChDuty1: 257492 ChDuty2: 228563 ChDuty3: 229563 ChDuty4: 12 DesiredAltitude: 1.00 HoverMode: 1.000000 flightAllow: 1.000000  TIME:Wed Jul  3 15:56:36 2013

ROLL: -0.00851 PITCH: 0.07528 YAW: 6.09897 SONAR1: 0.00000 MEDIANFILTERED: 0.00000 MEDIANDIFF: 0.00000 MEDIANINT: 0.00000 RAWSONAR: 0.00000 ROLLRATE: 0.01000 PITCHRATE: 0.02000 U1: 0.01000 U2: 0.02000 U3: 0.00000 U4: 0.00000 MDuty1: 0 MDuty2: 0 MDuty3: 0 MDuty4: 0 ChDuty1: 257492 ChDuty2: 228563 ChDuty3: 229563 ChDuty4: 12 DesiredAltitude: 1.00 HoverMode: 1.000000 flightAllow: 1.000000  TIME:Wed Jul  3 15:56:36 2013

ROLL: -0.00851 PITCH: 0.07528 YAW: 6.09897 SONAR1: 0.00000 MEDIANFILTERED: 0.00000 MEDIANDIFF: 0.00000 MEDIANINT: 0.00000 RAWSONAR: 0.00000 ROLLRATE: 0.01000 PITCHRATE: 0.02000 U1: 0.01000 U2: 0.02000 U3: 0.00000 U4: 0.00000 MDuty1: 0 MDuty2: 0 MDuty3: 0 MDuty4: 0 ChDuty1: 257492 ChDuty2: 228563 ChDuty3: 229563 ChDuty4: 12 DesiredAltitude: 1.00 HoverMode: 1.000000 flightAllow: 1.000000  TIME:Wed Jul  3 15:56:36 2013

ROLL: -0.00851 PITCH: 0.07528 YAW: 6.09897 SONAR1: 0.00000 MEDIANFILTERED: 0.00000 MEDIANDIFF: 0.00000 MEDIANINT: 0.00000 RAWSONAR: 0.00000 ROLLRATE: 0.01000 PITCHRATE: 0.02000 U1: 0.01000 U2: 0.02000 U3: 0.00000 U4: 0.00000 MDuty1: 0 MDuty2: 0 MDuty3: 0 MDuty4: 0 ChDuty1: 257492 ChDuty2: 228563 ChDuty3: 229563 ChDuty4: 12 DesiredAltitude: 1.00 HoverMode: 1.000000 flightAllow: 1.000000  TIME:Wed Jul  3 15:56:36 2013

ROLL: -0.00851 PITCH: 0.07528 YAW: 6.09897 SONAR1: 0.00000 MEDIANFILTERED: 0.00000 MEDIANDIFF: 0.00000 MEDIANINT: 0.00000 RAWSONAR: 0.00000 ROLLRATE: 0.01000 PITCHRATE: 0.02000 U1: 0.01000 U2: 0.02000 U3: 0.00000 U4: 0.00000 MDuty1: 0 MDuty2: 0 MDuty3: 0 MDuty4: 0 ChDuty1: 257492 ChDuty2: 228563 ChDuty3: 229563 ChDuty4: 12 DesiredAltitude: 1.00 HoverMode: 1.000000 flightAllow: 1.000000  TIME:Wed Jul  3 15:56:36 2013

ROLL: -0.00851 PITCH: 0.07528 YAW: 6.09897 SONAR1: 0.00000 MEDIANFILTERED: 0.00000 MEDIANDIFF: 0.00000 MEDIANINT: 0.00000 RAWSONAR: 0.00000 ROLLRATE: 0.01000 PITCHRATE: 0.02000 U1: 0.01000 U2: 0.02000 U3: 0.00000 U4: 0.00000 MDuty1: 0 MDuty2: 0 MDuty3: 0 MDuty4: 0 ChDuty1: 257492 ChDuty2: 228563 ChDuty3: 229563 ChDuty4: 12 DesiredAltitude: 1.00 HoverMode: 1.000000 flightAllow: 1.000000  TIME:Wed Jul  3 15:56:36 2013

ROLL: -0.00851 PITCH: 0.07528 YAW: 6.09897 SONAR1: 0.00000 MEDIANFILTERED: 0.00000 MEDIANDIFF: 0.00000 MEDIANINT: 0.00000 RAWSONAR: 0.00000 ROLLRATE: 0.01000 PITCHRATE: 0.02000 U1: 0.01000 U2: 0.02000 U3: 0.00000 U4: 0.00000 MDuty1: 0 MDuty2: 0 MDuty3: 0 MDuty4: 0 ChDuty1: 257492 ChDuty2: 228563 ChDuty3: 229563 ChDuty4: 12 DesiredAltitude: 1.00 HoverMode: 1.000000 flightAllow: 1.000000  TIME:Wed Jul  3 15:56:37 2013

ROLL: -0.00851 PITCH: 0.07528 YAW: 6.09897 SONAR1: 0.00000 MEDIANFILTERED: 0.00000 MEDIANDIFF: 0.00000 MEDIANINT: 0.00000 RAWSONAR: 0.00000 ROLLRATE: 0.01000 PITCHRATE: 0.02000 U1: 0.01000 U2: 0.02000 U3: 0.00000 U4: 0.00000 MDuty1: 0 MDuty2: 0 MDuty3: 0 MDuty4: 0 ChDuty1: 257492 ChDuty2: 228563 ChDuty3: 229563 ChDuty4: 12 DesiredAltitude: 1.00 HoverMode: 1.000000 flightAllow: 1.000000  TIME:Wed Jul  3 15:56:37 2013

ROLL: -0.00851 PITCH: 0.07528 YAW: 6.09897 SONAR1: 0.00000 MEDIANFILTERED: 0.00000 MEDIANDIFF: 0.00000 MEDIANINT: 0.00000 RAWSONAR: 0.00000 ROLLRATE: 0.01000 PITCHRATE: 0.02000 U1: 0.01000 U2: 0.02000 U3: 0.00000 U4: 0.00000 MDuty1: 0 MDuty2: 0 MDuty3: 0 MDuty4: 0 ChDuty1: 257492 ChDuty2: 228563 ChDuty3: 229563 ChDuty4: 12 DesiredAltitude: 1.00 HoverMode: 1.000000 flightAllow: 1.000000  TIME:Wed Jul  3 15:56:37 2013

ROLL: -0.00851 PITCH: 0.07528 YAW: 6.09897 SONAR1: 0.00000 MEDIANFILTERED: 0.00000 MEDIANDIFF: 0.00000 MEDIANINT: 0.00000 RAWSONAR: 0.00000 ROLLRATE: 0.01000 PITCHRATE: 0.02000 U1: 0.01000 U2: 0.02000 U3: 0.00000 U4: 0.00000 MDuty1: 0 MDuty2: 0 MDuty3: 0 MDuty4: 0 ChDuty1: 257492 ChDuty2: 228563 ChDuty3: 229563 ChDuty4: 12 DesiredAltitude: 1.00 HoverMode: 1.000000 flightAllow: 1.000000  TIME:Wed Jul  3 15:56:37 2013

ROLL: -0.00851 PITCH: 0.07528 YAW: 6.09897 SONAR1: 0.00000 MEDIANFILTERED: 0.00000 MEDIANDIFF: 0.00000 MEDIANINT: 0.00000 RAWSONAR: 0.00000 ROLLRATE: 0.01000 PITCHRATE: 0.02000 U1: 0.01000 U2: 0.02000 U3: 0.00000 U4: 0.00000 MDuty1: 0 MDuty2: 0 MDuty3: 0 MDuty4: 0 ChDuty1: 257492 ChDuty2: 228563 ChDuty3: 229563 ChDuty4: 12 DesiredAltitude: 1.00 HoverMode: 1.000000 flightAllow: 1.000000  TIME:Wed Jul  3 15:56:37 2013

ROLL: -0.00851 PITCH: 0.07528 YAW: 6.09897 SONAR1: 0.00000 MEDIANFILTERED: 0.00000 MEDIANDIFF: 0.00000 MEDIANINT: 0.00000 RAWSONAR: 0.00000 ROLLRATE: 0.01000 PITCHRATE: 0.02000 U1: 0.01000 U2: 0.02000 U3: 0.00000 U4: 0.00000 MDuty1: 0 MDuty2: 0 MDuty3: 0 MDuty4: 0 ChDuty1: 257492 ChDuty2: 228563 ChDuty3: 229563 ChDuty4: 12 DesiredAltitude: 1.00 HoverMode: 1.000000 flightAllow: 1.000000  TIME:Wed Jul  3 15:56:37 2013

ROLL: -0.00851 PITCH: 0.07528 YAW: 6.09897 SONAR1: 0.00000 MEDIANFILTERED: 0.00000 MEDIANDIFF: 0.00000 MEDIANINT: 0.00000 RAWSONAR: 0.00000 ROLLRATE: 0.01000 PITCHRATE: 0.02000 U1: 0.01000 U2: 0.02000 U3: 0.00000 U4: 0.00000 MDuty1: 0 MDuty2: 0 MDuty3: 0 MDuty4: 0 ChDuty1: 257492 ChDuty2: 228563 ChDuty3: 229563 ChDuty4: 12 DesiredAltitude: 1.00 HoverMode: 1.000000 flightAllow: 1.000000  TIME:Wed Jul  3 15:56:37 2013

ROLL: -0.00851 PITCH: 0.07528 YAW: 6.09897 SONAR1: 0.00000 MEDIANFILTERED: 0.00000 MEDIANDIFF: 0.00000 MEDIANINT: 0.00000 RAWSONAR: 0.00000 ROLLRATE: 0.01000 PITCHRATE: 0.02000 U1: 0.01000 U2: 0.02000 U3: 0.00000 U4: 0.00000 MDuty1: 0 MDuty2: 0 MDuty3: 0 MDuty4: 0 ChDuty1: 257492 ChDuty2: 228563 ChDuty3: 229563 ChDuty4: 12 DesiredAltitude: 1.00 HoverMode: 1.000000 flightAllow: 1.000000  TIME:Wed Jul  3 15:56:37 2013

ROLL: -0.00851 PITCH: 0.07528 YAW: 6.09897 SONAR1: 0.00000 MEDIANFILTERED: 0.00000 MEDIANDIFF: 0.00000 MEDIANINT: 0.00000 RAWSONAR: 0.00000 ROLLRATE: 0.01000 PITCHRATE: 0.02000 U1: 0.01000 U2: 0.02000 U3: 0.00000 U4: 0.00000 MDuty1: 0 MDuty2: 0 MDuty3: 0 MDuty4: 0 ChDuty1: 257492 ChDuty2: 228563 ChDuty3: 229563 ChDuty4: 12 DesiredAltitude: 1.00 HoverMode: 1.000000 flightAllow: 1.000000  TIME:Wed Jul  3 15:56:37 2013

ROLL: -0.00851 PITCH: 0.07528 YAW: 6.09897 SONAR1: 0.00000 MEDIANFILTERED: 0.00000 MEDIANDIFF: 0.00000 MEDIANINT: 0.00000 RAWSONAR: 0.00000 ROLLRATE: 0.01000 PITCHRATE: 0.02000 U1: 0.01000 U2: 0.02000 U3: 0.00000 U4: 0.00000 MDuty1: 0 MDuty2: 0 MDuty3: 0 MDuty4: 0 ChDuty1: 257492 ChDuty2: 228563 ChDuty3: 229563 ChDuty4: 12 DesiredAltitude: 1.00 HoverMode: 1.000000 flightAllow: 1.000000  TIME:Wed Jul  3 15:56:37 2013

ROLL: -0.00851 PITCH: 0.07528 YAW: 6.09897 SONAR1: 0.00000 MEDIANFILTERED: 0.00000 MEDIANDIFF: 0.00000 MEDIANINT: 0.00000 RAWSONAR: 0.00000 ROLLRATE: 0.01000 PITCHRATE: 0.02000 U1: 0.01000 U2: 0.02000 U3: 0.00000 U4: 0.00000 MDuty1: 0 MDuty2: 0 MDuty3: 0 MDuty4: 0 ChDuty1: 257492 ChDuty2: 228563 ChDuty3: 229563 ChDuty4: 12 DesiredAltitude: 1.00 HoverMode: 1.000000 flightAllow: 1.000000  TIME:Wed Jul  3 15:56:38 2013

ROLL: -0.00851 PITCH: 0.07528 YAW: 6.09897 SONAR1: 0.00000 MEDIANFILTERED: 0.00000 MEDIANDIFF: 0.00000 MEDIANINT: 0.00000 RAWSONAR: 0.00000 ROLLRATE: 0.01000 PITCHRATE: 0.02000 U1: 0.01000 U2: 0.02000 U3: 0.00000 U4: 0.00000 MDuty1: 0 MDuty2: 0 MDuty3: 0 MDuty4: 0 ChDuty1: 257492 ChDuty2: 228563 ChDuty3: 229563 ChDuty4: 12 DesiredAltitude: 1.00 HoverMode: 1.000000 flightAllow: 1.000000  TIME:Wed Jul  3 15:56:38 2013

ROLL: -0.00851 PITCH: 0.07528 YAW: 6.09897 SONAR1: 0.00000 MEDIANFILTERED: 0.00000 MEDIANDIFF: 0.00000 MEDIANINT: 0.00000 RAWSONAR: 0.00000 ROLLRATE: 0.01000 PITCHRATE: 0.02000 U1: 0.01000 U2: 0.02000 U3: 0.00000 U4: 0.00000 MDuty1: 0 MDuty2: 0 MDuty3: 0 MDuty4: 0 ChDuty1: 257492 ChDuty2: 228563 ChDuty3: 229563 ChDuty4: 12 DesiredAltitude: 1.00 HoverMode: 1.000000 flightAllow: 1.000000  TIME:Wed Jul  3 15:56:38 2013

ROLL: -0.00851 PITCH: 0.07528 YAW: 6.09897 SONAR1: 0.00000 MEDIANFILTERED: 0.00000 MEDIANDIFF: 0.00000 MEDIANINT: 0.00000 RAWSONAR: 0.00000 ROLLRATE: 0.01000 PITCHRATE: 0.02000 U1: 0.01000 U2: 0.02000 U3: 0.00000 U4: 0.00000 MDuty1: 0 MDuty2: 0 MDuty3: 0 MDuty4: 0 ChDuty1: 257492 ChDuty2: 228563 ChDuty3: 229563 ChDuty4: 12 DesiredAltitude: 1.00 HoverMode: 1.000000 flightAllow: 1.000000  TIME:Wed Jul  3 15:56:38 2013

ROLL: -0.00851 PITCH: 0.07528 YAW: 6.09897 SONAR1: 0.00000 MEDIANFILTERED: 0.00000 MEDIANDIFF: 0.00000 MEDIANINT: 0.00000 RAWSONAR: 0.00000 ROLLRATE: 0.01000 PITCHRATE: 0.02000 U1: 0.01000 U2: 0.02000 U3: 0.00000 U4: 0.00000 MDuty1: 0 MDuty2: 0 MDuty3: 0 MDuty4: 0 ChDuty1: 257492 ChDuty2: 228563 ChDuty3: 229563 ChDuty4: 12 DesiredAltitude: 1.00 HoverMode: 1.000000 flightAllow: 1.000000  TIME:Wed Jul  3 15:56:38 2013

ROLL: -0.00851 PITCH: 0.07528 YAW: 6.09897 SONAR1: 0.00000 MEDIANFILTERED: 0.00000 MEDIANDIFF: 0.00000 MEDIANINT: 0.00000 RAWSONAR: 0.00000 ROLLRATE: 0.01000 PITCHRATE: 0.02000 U1: 0.01000 U2: 0.02000 U3: 0.00000 U4: 0.00000 MDuty1: 0 MDuty2: 0 MDuty3: 0 MDuty4: 0 ChDuty1: 257492 ChDuty2: 228563 ChDuty3: 229563 ChDuty4: 12 DesiredAltitude: 1.00 HoverMode: 1.000000 flightAllow: 1.000000  TIME:Wed Jul  3 15:56:38 2013

ROLL: -0.00851 PITCH: 0.07528 YAW: 6.09897 SONAR1: 0.00000 MEDIANFILTERED: 0.00000 MEDIANDIFF: 0.00000 MEDIANINT: 0.00000 RAWSONAR: 0.00000 ROLLRATE: 0.01000 PITCHRATE: 0.02000 U1: 0.01000 U2: 0.02000 U3: 0.00000 U4: 0.00000 MDuty1: 0 MDuty2: 0 MDuty3: 0 MDuty4: 0 ChDuty1: 257492 ChDuty2: 228563 ChDuty3: 229563 ChDuty4: 12 DesiredAltitude: 1.00 HoverMode: 1.000000 flightAllow: 1.000000  TIME:Wed Jul  3 15:56:38 2013

ROLL: -0.00851 PITCH: 0.07528 YAW: 6.09897 SONAR1: 0.00000 MEDIANFILTERED: 0.00000 MEDIANDIFF: 0.00000 MEDIANINT: 0.00000 RAWSONAR: 0.00000 ROLLRATE: 0.01000 PITCHRATE: 0.02000 U1: 0.01000 U2: 0.02000 U3: 0.00000 U4: 0.00000 MDuty1: 0 MDuty2: 0 MDuty3: 0 MDuty4: 0 ChDuty1: 257492 ChDuty2: 228563 ChDuty3: 229563 ChDuty4: 12 DesiredAltitude: 1.00 HoverMode: 1.000000 flightAllow: 1.000000  TIME:Wed Jul  3 15:56:38 2013

ROLL: -0.00851 PITCH: 0.07528 YAW: 6.09897 SONAR1: 0.00000 MEDIANFILTERED: 0.00000 MEDIANDIFF: 0.00000 MEDIANINT: 0.00000 RAWSONAR: 0.00000 ROLLRATE: 0.01000 PITCHRATE: 0.02000 U1: 0.01000 U2: 0.02000 U3: 0.00000 U4: 0.00000 MDuty1: 0 MDuty2: 0 MDuty3: 0 MDuty4: 0 ChDuty1: 257492 ChDuty2: 228563 ChDuty3: 229563 ChDuty4: 12 DesiredAltitude: 1.00 HoverMode: 1.000000 flightAllow: 1.000000  TIME:Wed Jul  3 15:56:38 2013

ROLL: -0.00851 PITCH: 0.07528 YAW: 6.09897 SONAR1: 0.00000 MEDIANFILTERED: 0.00000 MEDIANDIFF: 0.00000 MEDIANINT: 0.00000 RAWSONAR: 0.00000 ROLLRATE: 0.01000 PITCHRATE: 0.02000 U1: 0.01000 U2: 0.02000 U3: 0.00000 U4: 0.00000 MDuty1: 0 MDuty2: 0 MDuty3: 0 MDuty4: 0 ChDuty1: 257492 ChDuty2: 228563 ChDuty3: 229563 ChDuty4: 12 DesiredAltitude: 1.00 HoverMode: 1.000000 flightAllow: 1.000000  TIME:Wed Jul  3 15:56:38 2013

ROLL: -0.00851 PITCH: 0.07528 YAW: 6.09897 SONAR1: 0.00000 MEDIANFILTERED: 0.00000 MEDIANDIFF: 0.00000 MEDIANINT: 0.00000 RAWSONAR: 0.00000 ROLLRATE: 0.01000 PITCHRATE: 0.02000 U1: 0.01000 U2: 0.02000 U3: 0.00000 U4: 0.00000 MDuty1: 0 MDuty2: 0 MDuty3: 0 MDuty4: 0 ChDuty1: 257492 ChDuty2: 228563 ChDuty3: 229563 ChDuty4: 12 DesiredAltitude: 1.00 HoverMode: 1.000000 flightAllow: 1.000000  TIME:Wed Jul  3 15:56:39 2013

ROLL: -0.00851 PITCH: 0.07528 YAW: 6.09897 SONAR1: 0.00000 MEDIANFILTERED: 0.00000 MEDIANDIFF: 0.00000 MEDIANINT: 0.00000 RAWSONAR: 0.00000 ROLLRATE: 0.01000 PITCHRATE: 0.02000 U1: 0.01000 U2: 0.02000 U3: 0.00000 U4: 0.00000 MDuty1: 0 MDuty2: 0 MDuty3: 0 MDuty4: 0 ChDuty1: 257492 ChDuty2: 228563 ChDuty3: 229563 ChDuty4: 12 DesiredAltitude: 1.00 HoverMode: 1.000000 flightAllow: 1.000000  TIME:Wed Jul  3 15:56:39 2013

ROLL: -0.00851 PITCH: 0.07528 YAW: 6.09897 SONAR1: 0.00000 MEDIANFILTERED: 0.00000 MEDIANDIFF: 0.00000 MEDIANINT: 0.00000 RAWSONAR: 0.00000 ROLLRATE: 0.01000 PITCHRATE: 0.02000 U1: 0.01000 U2: 0.02000 U3: 0.00000 U4: 0.00000 MDuty1: 0 MDuty2: 0 MDuty3: 0 MDuty4: 0 ChDuty1: 257492 ChDuty2: 228563 ChDuty3: 229563 ChDuty4: 12 DesiredAltitude: 1.00 HoverMode: 1.000000 flightAllow: 1.000000  TIME:Wed Jul  3 15:56:39 2013

ROLL: -0.00851 PITCH: 0.07528 YAW: 6.09897 SONAR1: 0.00000 MEDIANFILTERED: 0.00000 MEDIANDIFF: 0.00000 MEDIANINT: 0.00000 RAWSONAR: 0.00000 ROLLRATE: 0.01000 PITCHRATE: 0.02000 U1: 0.01000 U2: 0.02000 U3: 0.00000 U4: 0.00000 MDuty1: 0 MDuty2: 0 MDuty3: 0 MDuty4: 0 ChDuty1: 257492 ChDuty2: 228563 ChDuty3: 229563 ChDuty4: 12 DesiredAltitude: 1.00 HoverMode: 1.000000 flightAllow: 1.000000  TIME:Wed Jul  3 15:56:39 2013

ROLL: -0.00851 PITCH: 0.07528 YAW: 6.09897 SONAR1: 0.00000 MEDIANFILTERED: 0.00000 MEDIANDIFF: 0.00000 MEDIANINT: 0.00000 RAWSONAR: 0.00000 ROLLRATE: 0.01000 PITCHRATE: 0.02000 U1: 0.01000 U2: 0.02000 U3: 0.00000 U4: 0.00000 MDuty1: 0 MDuty2: 0 MDuty3: 0 MDuty4: 0 ChDuty1: 257492 ChDuty2: 228563 ChDuty3: 229563 ChDuty4: 12 DesiredAltitude: 1.00 HoverMode: 1.000000 flightAllow: 1.000000  TIME:Wed Jul  3 15:56:39 2013

ROLL: -0.00851 PITCH: 0.07528 YAW: 6.09897 SONAR1: 0.00000 MEDIANFILTERED: 0.00000 MEDIANDIFF: 0.00000 MEDIANINT: 0.00000 RAWSONAR: 0.00000 ROLLRATE: 0.01000 PITCHRATE: 0.02000 U1: 0.01000 U2: 0.02000 U3: 0.00000 U4: 0.00000 MDuty1: 0 MDuty2: 0 MDuty3: 0 MDuty4: 0 ChDuty1: 257492 ChDuty2: 228563 ChDuty3: 229563 ChDuty4: 12 DesiredAltitude: 1.00 HoverMode: 1.000000 flightAllow: 1.000000  TIME:Wed Jul  3 15:56:39 2013

ROLL: -0.00851 PITCH: 0.07528 YAW: 6.09897 SONAR1: 0.00000 MEDIANFILTERED: 0.00000 MEDIANDIFF: 0.00000 MEDIANINT: 0.00000 RAWSONAR: 0.00000 ROLLRATE: 0.01000 PITCHRATE: 0.02000 U1: 0.01000 U2: 0.02000 U3: 0.00000 U4: 0.00000 MDuty1: 0 MDuty2: 0 MDuty3: 0 MDuty4: 0 ChDuty1: 257492 ChDuty2: 228563 ChDuty3: 229563 ChDuty4: 12 DesiredAltitude: 1.00 HoverMode: 1.000000 flightAllow: 1.000000  TIME:Wed Jul  3 15:56:39 2013

ROLL: -0.00851 PITCH: 0.07528 YAW: 6.09897 SONAR1: 0.00000 MEDIANFILTERED: 0.00000 MEDIANDIFF: 0.00000 MEDIANINT: 0.00000 RAWSONAR: 0.00000 ROLLRATE: 0.01000 PITCHRATE: 0.02000 U1: 0.01000 U2: 0.02000 U3: 0.00000 U4: 0.00000 MDuty1: 0 MDuty2: 0 MDuty3: 0 MDuty4: 0 ChDuty1: 257492 ChDuty2: 228563 ChDuty3: 229563 ChDuty4: 12 DesiredAltitude: 1.00 HoverMode: 1.000000 flightAllow: 1.000000  TIME:Wed Jul  3 15:56:39 2013

ROLL: -0.00851 PITCH: 0.07528 YAW: 6.09897 SONAR1: 0.00000 MEDIANFILTERED: 0.00000 MEDIANDIFF: 0.00000 MEDIANINT: 0.00000 RAWSONAR: 0.00000 ROLLRATE: 0.01000 PITCHRATE: 0.02000 U1: 0.01000 U2: 0.02000 U3: 0.00000 U4: 0.00000 MDuty1: 0 MDuty2: 0 MDuty3: 0 MDuty4: 0 ChDuty1: 257492 ChDuty2: 228563 ChDuty3: 229563 ChDuty4: 12 DesiredAltitude: 1.00 HoverMode: 1.000000 flightAllow: 1.000000  TIME:Wed Jul  3 15:56:39 2013

ROLL: -0.00851 PITCH: 0.07528 YAW: 6.09897 SONAR1: 0.00000 MEDIANFILTERED: 0.00000 MEDIANDIFF: 0.00000 MEDIANINT: 0.00000 RAWSONAR: 0.00000 ROLLRATE: 0.01000 PITCHRATE: 0.02000 U1: 0.01000 U2: 0.02000 U3: 0.00000 U4: 0.00000 MDuty1: 0 MDuty2: 0 MDuty3: 0 MDuty4: 0 ChDuty1: 257492 ChDuty2: 228563 ChDuty3: 229563 ChDuty4: 12 DesiredAltitude: 1.00 HoverMode: 1.000000 flightAllow: 1.000000  TIME:Wed Jul  3 15:56:39 2013

ROLL: -0.00851 PITCH: 0.07528 YAW: 6.09897 SONAR1: 0.00000 MEDIANFILTERED: 0.00000 MEDIANDIFF: 0.00000 MEDIANINT: 0.00000 RAWSONAR: 0.00000 ROLLRATE: 0.01000 PITCHRATE: 0.02000 U1: 0.01000 U2: 0.02000 U3: 0.00000 U4: 0.00000 MDuty1: 0 MDuty2: 0 MDuty3: 0 MDuty4: 0 ChDuty1: 257492 ChDuty2: 228563 ChDuty3: 229563 ChDuty4: 12 DesiredAltitude: 1.00 HoverMode: 1.000000 flightAllow: 1.000000  TIME:Wed Jul  3 15:56:40 2013

ROLL: -0.00851 PITCH: 0.07528 YAW: 6.09897 SONAR1: 0.00000 MEDIANFILTERED: 0.00000 MEDIANDIFF: 0.00000 MEDIANINT: 0.00000 RAWSONAR: 0.00000 ROLLRATE: 0.01000 PITCHRATE: 0.02000 U1: 0.01000 U2: 0.02000 U3: 0.00000 U4: 0.00000 MDuty1: 0 MDuty2: 0 MDuty3: 0 MDuty4: 0 ChDuty1: 257492 ChDuty2: 228563 ChDuty3: 229563 ChDuty4: 12 DesiredAltitude: 1.00 HoverMode: 1.000000 flightAllow: 1.000000  TIME:Wed Jul  3 15:56:40 2013

ROLL: -0.00851 PITCH: 0.07528 YAW: 6.09897 SONAR1: 0.00000 MEDIANFILTERED: 0.00000 MEDIANDIFF: 0.00000 MEDIANINT: 0.00000 RAWSONAR: 0.00000 ROLLRATE: 0.01000 PITCHRATE: 0.02000 U1: 0.01000 U2: 0.02000 U3: 0.00000 U4: 0.00000 MDuty1: 0 MDuty2: 0 MDuty3: 0 MDuty4: 0 ChDuty1: 257492 ChDuty2: 228563 ChDuty3: 229563 ChDuty4: 12 DesiredAltitude: 1.00 HoverMode: 1.000000 flightAllow: 1.000000  TIME:Wed Jul  3 15:56:40 2013

ROLL: -0.00851 PITCH: 0.07528 YAW: 6.09897 SONAR1: 0.00000 MEDIANFILTERED: 0.00000 MEDIANDIFF: 0.00000 MEDIANINT: 0.00000 RAWSONAR: 0.00000 ROLLRATE: 0.01000 PITCHRATE: 0.02000 U1: 0.01000 U2: 0.02000 U3: 0.00000 U4: 0.00000 MDuty1: 0 MDuty2: 0 MDuty3: 0 MDuty4: 0 ChDuty1: 257492 ChDuty2: 228563 ChDuty3: 229563 ChDuty4: 12 DesiredAltitude: 1.00 HoverMode: 1.000000 flightAllow: 1.000000  TIME:Wed Jul  3 15:56:40 2013

ROLL: -0.00851 PITCH: 0.07528 YAW: 6.09897 SONAR1: 0.00000 MEDIANFILTERED: 0.00000 MEDIANDIFF: 0.00000 MEDIANINT: 0.00000 RAWSONAR: 0.00000 ROLLRATE: 0.01000 PITCHRATE: 0.02000 U1: 0.01000 U2: 0.02000 U3: 0.00000 U4: 0.00000 MDuty1: 0 MDuty2: 0 MDuty3: 0 MDuty4: 0 ChDuty1: 257492 ChDuty2: 228563 ChDuty3: 229563 ChDuty4: 12 DesiredAltitude: 1.00 HoverMode: 1.000000 flightAllow: 1.000000  TIME:Wed Jul  3 15:56:40 2013

ROLL: -0.00851 PITCH: 0.07528 YAW: 6.09897 SONAR1: 0.00000 MEDIANFILTERED: 0.00000 MEDIANDIFF: 0.00000 MEDIANINT: 0.00000 RAWSONAR: 0.00000 ROLLRATE: 0.01000 PITCHRATE: 0.02000 U1: 0.01000 U2: 0.02000 U3: 0.00000 U4: 0.00000 MDuty1: 0 MDuty2: 0 MDuty3: 0 MDuty4: 0 ChDuty1: 257492 ChDuty2: 228563 ChDuty3: 229563 ChDuty4: 12 DesiredAltitude: 1.00 HoverMode: 1.000000 flightAllow: 1.000000  TIME:Wed Jul  3 15:56:40 2013

ROLL: -0.00851 PITCH: 0.07528 YAW: 6.09897 SONAR1: 0.00000 MEDIANFILTERED: 0.00000 MEDIANDIFF: 0.00000 MEDIANINT: 0.00000 RAWSONAR: 0.00000 ROLLRATE: 0.01000 PITCHRATE: 0.02000 U1: 0.01000 U2: 0.02000 U3: 0.00000 U4: 0.00000 MDuty1: 0 MDuty2: 0 MDuty3: 0 MDuty4: 0 ChDuty1: 257492 ChDuty2: 228563 ChDuty3: 229563 ChDuty4: 12 DesiredAltitude: 1.00 HoverMode: 1.000000 flightAllow: 1.000000  TIME:Wed Jul  3 15:56:40 2013

ROLL: -0.00851 PITCH: 0.07528 YAW: 6.09897 SONAR1: 0.00000 MEDIANFILTERED: 0.00000 MEDIANDIFF: 0.00000 MEDIANINT: 0.00000 RAWSONAR: 0.00000 ROLLRATE: 0.01000 PITCHRATE: 0.02000 U1: 0.01000 U2: 0.02000 U3: 0.00000 U4: 0.00000 MDuty1: 0 MDuty2: 0 MDuty3: 0 MDuty4: 0 ChDuty1: 257492 ChDuty2: 228563 ChDuty3: 229563 ChDuty4: 12 DesiredAltitude: 1.00 HoverMode: 1.000000 flightAllow: 1.000000  TIME:Wed Jul  3 15:56:40 2013

ROLL: -0.00851 PITCH: 0.07528 YAW: 6.09897 SONAR1: 0.00000 MEDIANFILTERED: 0.00000 MEDIANDIFF: 0.00000 MEDIANINT: 0.00000 RAWSONAR: 0.00000 ROLLRATE: 0.01000 PITCHRATE: 0.02000 U1: 0.01000 U2: 0.02000 U3: 0.00000 U4: 0.00000 MDuty1: 0 MDuty2: 0 MDuty3: 0 MDuty4: 0 ChDuty1: 257492 ChDuty2: 228563 ChDuty3: 229563 ChDuty4: 12 DesiredAltitude: 1.00 HoverMode: 1.000000 flightAllow: 1.000000  TIME:Wed Jul  3 15:56:40 2013

ROLL: -0.00851 PITCH: 0.07528 YAW: 6.09897 SONAR1: 0.00000 MEDIANFILTERED: 0.00000 MEDIANDIFF: 0.00000 MEDIANINT: 0.00000 RAWSONAR: 0.00000 ROLLRATE: 0.01000 PITCHRATE: 0.02000 U1: 0.01000 U2: 0.02000 U3: 0.00000 U4: 0.00000 MDuty1: 0 MDuty2: 0 MDuty3: 0 MDuty4: 0 ChDuty1: 257492 ChDuty2: 228563 ChDuty3: 229563 ChDuty4: 12 DesiredAltitude: 1.00 HoverMode: 1.000000 flightAllow: 1.000000  TIME:Wed Jul  3 15:56:40 2013

ROLL: -0.00851 PITCH: 0.07528 YAW: 6.09897 SONAR1: 0.00000 MEDIANFILTERED: 0.00000 MEDIANDIFF: 0.00000 MEDIANINT: 0.00000 RAWSONAR: 0.00000 ROLLRATE: 0.01000 PITCHRATE: 0.02000 U1: 0.01000 U2: 0.02000 U3: 0.00000 U4: 0.00000 MDuty1: 0 MDuty2: 0 MDuty3: 0 MDuty4: 0 ChDuty1: 257492 ChDuty2: 228563 ChDuty3: 229563 ChDuty4: 12 DesiredAltitude: 1.00 HoverMode: 1.000000 flightAllow: 1.000000  TIME:Wed Jul  3 15:56:41 2013

ROLL: -0.00851 PITCH: 0.07528 YAW: 6.09897 SONAR1: 0.00000 MEDIANFILTERED: 0.00000 MEDIANDIFF: 0.00000 MEDIANINT: 0.00000 RAWSONAR: 0.00000 ROLLRATE: 0.01000 PITCHRATE: 0.02000 U1: 0.01000 U2: 0.02000 U3: 0.00000 U4: 0.00000 MDuty1: 0 MDuty2: 0 MDuty3: 0 MDuty4: 0 ChDuty1: 257492 ChDuty2: 228563 ChDuty3: 229563 ChDuty4: 12 DesiredAltitude: 1.00 HoverMode: 1.000000 flightAllow: 1.000000  TIME:Wed Jul  3 15:56:41 2013

ROLL: -0.00851 PITCH: 0.07528 YAW: 6.09897 SONAR1: 0.00000 MEDIANFILTERED: 0.00000 MEDIANDIFF: 0.00000 MEDIANINT: 0.00000 RAWSONAR: 0.00000 ROLLRATE: 0.01000 PITCHRATE: 0.02000 U1: 0.01000 U2: 0.02000 U3: 0.00000 U4: 0.00000 MDuty1: 0 MDuty2: 0 MDuty3: 0 MDuty4: 0 ChDuty1: 257492 ChDuty2: 228563 ChDuty3: 229563 ChDuty4: 12 DesiredAltitude: 1.00 HoverMode: 1.000000 flightAllow: 1.000000  TIME:Wed Jul  3 15:56:41 2013

ROLL: -0.00851 PITCH: 0.07528 YAW: 6.09897 SONAR1: 0.00000 MEDIANFILTERED: 0.00000 MEDIANDIFF: 0.00000 MEDIANINT: 0.00000 RAWSONAR: 0.00000 ROLLRATE: 0.01000 PITCHRATE: 0.02000 U1: 0.01000 U2: 0.02000 U3: 0.00000 U4: 0.00000 MDuty1: 0 MDuty2: 0 MDuty3: 0 MDuty4: 0 ChDuty1: 257492 ChDuty2: 228563 ChDuty3: 229563 ChDuty4: 12 DesiredAltitude: 1.00 HoverMode: 1.000000 flightAllow: 1.000000  TIME:Wed Jul  3 15:56:41 2013

ROLL: -0.00851 PITCH: 0.07528 YAW: 6.09897 SONAR1: 0.00000 MEDIANFILTERED: 0.00000 MEDIANDIFF: 0.00000 MEDIANINT: 0.00000 RAWSONAR: 0.00000 ROLLRATE: 0.01000 PITCHRATE: 0.02000 U1: 0.01000 U2: 0.02000 U3: 0.00000 U4: 0.00000 MDuty1: 0 MDuty2: 0 MDuty3: 0 MDuty4: 0 ChDuty1: 257492 ChDuty2: 228563 ChDuty3: 229563 ChDuty4: 12 DesiredAltitude: 1.00 HoverMode: 1.000000 flightAllow: 1.000000  TIME:Wed Jul  3 15:56:41 2013

ROLL: -0.00851 PITCH: 0.07528 YAW: 6.09897 SONAR1: 0.00000 MEDIANFILTERED: 0.00000 MEDIANDIFF: 0.00000 MEDIANINT: 0.00000 RAWSONAR: 0.00000 ROLLRATE: 0.01000 PITCHRATE: 0.02000 U1: 0.01000 U2: 0.02000 U3: 0.00000 U4: 0.00000 MDuty1: 0 MDuty2: 0 MDuty3: 0 MDuty4: 0 ChDuty1: 257492 ChDuty2: 228563 ChDuty3: 229563 ChDuty4: 12 DesiredAltitude: 1.00 HoverMode: 1.000000 flightAllow: 1.000000  TIME:Wed Jul  3 15:56:41 2013

ROLL: -0.00851 PITCH: 0.07528 YAW: 6.09897 SONAR1: 0.00000 MEDIANFILTERED: 0.00000 MEDIANDIFF: 0.00000 MEDIANINT: 0.00000 RAWSONAR: 0.00000 ROLLRATE: 0.01000 PITCHRATE: 0.02000 U1: 0.01000 U2: 0.02000 U3: 0.00000 U4: 0.00000 MDuty1: 0 MDuty2: 0 MDuty3: 0 MDuty4: 0 ChDuty1: 257492 ChDuty2: 228563 ChDuty3: 229563 ChDuty4: 12 DesiredAltitude: 1.00 HoverMode: 1.000000 flightAllow: 1.000000  TIME:Wed Jul  3 15:56:41 2013

ROLL: -0.00851 PITCH: 0.07528 YAW: 6.09897 SONAR1: 0.00000 MEDIANFILTERED: 0.00000 MEDIANDIFF: 0.00000 MEDIANINT: 0.00000 RAWSONAR: 0.00000 ROLLRATE: 0.01000 PITCHRATE: 0.02000 U1: 0.01000 U2: 0.02000 U3: 0.00000 U4: 0.00000 MDuty1: 0 MDuty2: 0 MDuty3: 0 MDuty4: 0 ChDuty1: 257492 ChDuty2: 228563 ChDuty3: 229563 ChDuty4: 12 DesiredAltitude: 1.00 HoverMode: 1.000000 flightAllow: 1.000000  TIME:Wed Jul  3 15:56:41 2013

ROLL: -0.00851 PITCH: 0.07528 YAW: 6.09897 SONAR1: 0.00000 MEDIANFILTERED: 0.00000 MEDIANDIFF: 0.00000 MEDIANINT: 0.00000 RAWSONAR: 0.00000 ROLLRATE: 0.01000 PITCHRATE: 0.02000 U1: 0.01000 U2: 0.02000 U3: 0.00000 U4: 0.00000 MDuty1: 0 MDuty2: 0 MDuty3: 0 MDuty4: 0 ChDuty1: 257492 ChDuty2: 228563 ChDuty3: 229563 ChDuty4: 12 DesiredAltitude: 1.00 HoverMode: 1.000000 flightAllow: 1.000000  TIME:Wed Jul  3 15:56:41 2013

ROLL: -0.00851 PITCH: 0.07528 YAW: 6.09897 SONAR1: 0.00000 MEDIANFILTERED: 0.00000 MEDIANDIFF: 0.00000 MEDIANINT: 0.00000 RAWSONAR: 0.00000 ROLLRATE: 0.01000 PITCHRATE: 0.02000 U1: 0.01000 U2: 0.02000 U3: 0.00000 U4: 0.00000 MDuty1: 0 MDuty2: 0 MDuty3: 0 MDuty4: 0 ChDuty1: 257492 ChDuty2: 228563 ChDuty3: 229563 ChDuty4: 12 DesiredAltitude: 1.00 HoverMode: 1.000000 flightAllow: 1.000000  TIME:Wed Jul  3 15:56:41 2013

ROLL: -0.00851 PITCH: 0.07528 YAW: 6.09897 SONAR1: 0.00000 MEDIANFILTERED: 0.00000 MEDIANDIFF: 0.00000 MEDIANINT: 0.00000 RAWSONAR: 0.00000 ROLLRATE: 0.01000 PITCHRATE: 0.02000 U1: 0.01000 U2: 0.02000 U3: 0.00000 U4: 0.00000 MDuty1: 0 MDuty2: 0 MDuty3: 0 MDuty4: 0 ChDuty1: 257492 ChDuty2: 228563 ChDuty3: 229563 ChDuty4: 12 DesiredAltitude: 1.00 HoverMode: 1.000000 flightAllow: 1.000000  TIME:Wed Jul  3 15:56:42 2013

ROLL: -0.00851 PITCH: 0.07528 YAW: 6.09897 SONAR1: 0.00000 MEDIANFILTERED: 0.00000 MEDIANDIFF: 0.00000 MEDIANINT: 0.00000 RAWSONAR: 0.00000 ROLLRATE: 0.01000 PITCHRATE: 0.02000 U1: 0.01000 U2: 0.02000 U3: 0.00000 U4: 0.00000 MDuty1: 0 MDuty2: 0 MDuty3: 0 MDuty4: 0 ChDuty1: 257492 ChDuty2: 228563 ChDuty3: 229563 ChDuty4: 12 DesiredAltitude: 1.00 HoverMode: 1.000000 flightAllow: 1.000000  TIME:Wed Jul  3 15:56:42 2013

ROLL: -0.00851 PITCH: 0.07528 YAW: 6.09897 SONAR1: 0.00000 MEDIANFILTERED: 0.00000 MEDIANDIFF: 0.00000 MEDIANINT: 0.00000 RAWSONAR: 0.00000 ROLLRATE: 0.01000 PITCHRATE: 0.02000 U1: 0.01000 U2: 0.02000 U3: 0.00000 U4: 0.00000 MDuty1: 0 MDuty2: 0 MDuty3: 0 MDuty4: 0 ChDuty1: 257492 ChDuty2: 228563 ChDuty3: 229563 ChDuty4: 12 DesiredAltitude: 1.00 HoverMode: 1.000000 flightAllow: 1.000000  TIME:Wed Jul  3 15:56:42 2013

ROLL: -0.00851 PITCH: 0.07528 YAW: 6.09897 SONAR1: 0.00000 MEDIANFILTERED: 0.00000 MEDIANDIFF: 0.00000 MEDIANINT: 0.00000 RAWSONAR: 0.00000 ROLLRATE: 0.01000 PITCHRATE: 0.02000 U1: 0.01000 U2: 0.02000 U3: 0.00000 U4: 0.00000 MDuty1: 0 MDuty2: 0 MDuty3: 0 MDuty4: 0 ChDuty1: 257492 ChDuty2: 228563 ChDuty3: 229563 ChDuty4: 12 DesiredAltitude: 1.00 HoverMode: 1.000000 flightAllow: 1.000000  TIME:Wed Jul  3 15:56:42 2013

ROLL: -0.00851 PITCH: 0.07528 YAW: 6.09897 SONAR1: 0.00000 MEDIANFILTERED: 0.00000 MEDIANDIFF: 0.00000 MEDIANINT: 0.00000 RAWSONAR: 0.00000 ROLLRATE: 0.01000 PITCHRATE: 0.02000 U1: 0.01000 U2: 0.02000 U3: 0.00000 U4: 0.00000 MDuty1: 0 MDuty2: 0 MDuty3: 0 MDuty4: 0 ChDuty1: 257492 ChDuty2: 228563 ChDuty3: 229563 ChDuty4: 12 DesiredAltitude: 1.00 HoverMode: 1.000000 flightAllow: 1.000000  TIME:Wed Jul  3 15:56:42 2013

ROLL: -0.00851 PITCH: 0.07528 YAW: 6.09897 SONAR1: 0.00000 MEDIANFILTERED: 0.00000 MEDIANDIFF: 0.00000 MEDIANINT: 0.00000 RAWSONAR: 0.00000 ROLLRATE: 0.01000 PITCHRATE: 0.02000 U1: 0.01000 U2: 0.02000 U3: 0.00000 U4: 0.00000 MDuty1: 0 MDuty2: 0 MDuty3: 0 MDuty4: 0 ChDuty1: 257492 ChDuty2: 228563 ChDuty3: 229563 ChDuty4: 12 DesiredAltitude: 1.00 HoverMode: 1.000000 flightAllow: 1.000000  TIME:Wed Jul  3 15:56:42 2013

ROLL: -0.00851 PITCH: 0.07528 YAW: 6.09897 SONAR1: 0.00000 MEDIANFILTERED: 0.00000 MEDIANDIFF: 0.00000 MEDIANINT: 0.00000 RAWSONAR: 0.00000 ROLLRATE: 0.01000 PITCHRATE: 0.02000 U1: 0.01000 U2: 0.02000 U3: 0.00000 U4: 0.00000 MDuty1: 0 MDuty2: 0 MDuty3: 0 MDuty4: 0 ChDuty1: 257492 ChDuty2: 228563 ChDuty3: 229563 ChDuty4: 12 DesiredAltitude: 1.00 HoverMode: 1.000000 flightAllow: 1.000000  TIME:Wed Jul  3 15:56:42 2013

ROLL: -0.00851 PITCH: 0.07528 YAW: 6.09897 SONAR1: 0.00000 MEDIANFILTERED: 0.00000 MEDIANDIFF: 0.00000 MEDIANINT: 0.00000 RAWSONAR: 0.00000 ROLLRATE: 0.01000 PITCHRATE: 0.02000 U1: 0.01000 U2: 0.02000 U3: 0.00000 U4: 0.00000 MDuty1: 0 MDuty2: 0 MDuty3: 0 MDuty4: 0 ChDuty1: 257492 ChDuty2: 228563 ChDuty3: 229563 ChDuty4: 12 DesiredAltitude: 1.00 HoverMode: 1.000000 flightAllow: 1.000000  TIME:Wed Jul  3 15:56:42 2013

ROLL: -0.00851 PITCH: 0.07528 YAW: 6.09897 SONAR1: 0.00000 MEDIANFILTERED: 0.00000 MEDIANDIFF: 0.00000 MEDIANINT: 0.00000 RAWSONAR: 0.00000 ROLLRATE: 0.01000 PITCHRATE: 0.02000 U1: 0.01000 U2: 0.02000 U3: 0.00000 U4: 0.00000 MDuty1: 0 MDuty2: 0 MDuty3: 0 MDuty4: 0 ChDuty1: 257492 ChDuty2: 228563 ChDuty3: 229563 ChDuty4: 12 DesiredAltitude: 1.00 HoverMode: 1.000000 flightAllow: 1.000000  TIME:Wed Jul  3 15:56:42 2013

ROLL: -0.00851 PITCH: 0.07528 YAW: 6.09897 SONAR1: 0.00000 MEDIANFILTERED: 0.00000 MEDIANDIFF: 0.00000 MEDIANINT: 0.00000 RAWSONAR: 0.00000 ROLLRATE: 0.01000 PITCHRATE: 0.02000 U1: 0.01000 U2: 0.02000 U3: 0.00000 U4: 0.00000 MDuty1: 0 MDuty2: 0 MDuty3: 0 MDuty4: 0 ChDuty1: 257492 ChDuty2: 228563 ChDuty3: 229563 ChDuty4: 12 DesiredAltitude: 1.00 HoverMode: 1.000000 flightAllow: 1.000000  TIME:Wed Jul  3 15:56:42 2013

ROLL: -0.00851 PITCH: 0.07528 YAW: 6.09897 SONAR1: 0.00000 MEDIANFILTERED: 0.00000 MEDIANDIFF: 0.00000 MEDIANINT: 0.00000 RAWSONAR: 0.00000 ROLLRATE: 0.01000 PITCHRATE: 0.02000 U1: 0.01000 U2: 0.02000 U3: 0.00000 U4: 0.00000 MDuty1: 0 MDuty2: 0 MDuty3: 0 MDuty4: 0 ChDuty1: 257492 ChDuty2: 228563 ChDuty3: 229563 ChDuty4: 12 DesiredAltitude: 1.00 HoverMode: 1.000000 flightAllow: 1.000000  TIME:Wed Jul  3 15:56:43 2013

ROLL: -0.00851 PITCH: 0.07528 YAW: 6.09897 SONAR1: 0.00000 MEDIANFILTERED: 0.00000 MEDIANDIFF: 0.00000 MEDIANINT: 0.00000 RAWSONAR: 0.00000 ROLLRATE: 0.01000 PITCHRATE: 0.02000 U1: 0.01000 U2: 0.02000 U3: 0.00000 U4: 0.00000 MDuty1: 0 MDuty2: 0 MDuty3: 0 MDuty4: 0 ChDuty1: 257492 ChDuty2: 228563 ChDuty3: 229563 ChDuty4: 12 DesiredAltitude: 1.00 HoverMode: 1.000000 flightAllow: 1.000000  TIME:Wed Jul  3 15:56:43 2013

ROLL: -0.00851 PITCH: 0.07528 YAW: 6.09897 SONAR1: 0.00000 MEDIANFILTERED: 0.00000 MEDIANDIFF: 0.00000 MEDIANINT: 0.00000 RAWSONAR: 0.00000 ROLLRATE: 0.01000 PITCHRATE: 0.02000 U1: 0.01000 U2: 0.02000 U3: 0.00000 U4: 0.00000 MDuty1: 0 MDuty2: 0 MDuty3: 0 MDuty4: 0 ChDuty1: 257492 ChDuty2: 228563 ChDuty3: 229563 ChDuty4: 12 DesiredAltitude: 1.00 HoverMode: 1.000000 flightAllow: 1.000000  TIME:Wed Jul  3 15:56:43 2013

ROLL: -0.00851 PITCH: 0.07528 YAW: 6.09897 SONAR1: 0.00000 MEDIANFILTERED: 0.00000 MEDIANDIFF: 0.00000 MEDIANINT: 0.00000 RAWSONAR: 0.00000 ROLLRATE: 0.01000 PITCHRATE: 0.02000 U1: 0.01000 U2: 0.02000 U3: 0.00000 U4: 0.00000 MDuty1: 0 MDuty2: 0 MDuty3: 0 MDuty4: 0 ChDuty1: 257492 ChDuty2: 228563 ChDuty3: 229563 ChDuty4: 12 DesiredAltitude: 1.00 HoverMode: 1.000000 flightAllow: 1.000000  TIME:Wed Jul  3 15:56:43 2013

ROLL: -0.00851 PITCH: 0.07528 YAW: 6.09897 SONAR1: 0.00000 MEDIANFILTERED: 0.00000 MEDIANDIFF: 0.00000 MEDIANINT: 0.00000 RAWSONAR: 0.00000 ROLLRATE: 0.01000 PITCHRATE: 0.02000 U1: 0.01000 U2: 0.02000 U3: 0.00000 U4: 0.00000 MDuty1: 0 MDuty2: 0 MDuty3: 0 MDuty4: 0 ChDuty1: 257492 ChDuty2: 228563 ChDuty3: 229563 ChDuty4: 12 DesiredAltitude: 1.00 HoverMode: 1.000000 flightAllow: 1.000000  TIME:Wed Jul  3 15:56:43 2013

ROLL: -0.00851 PITCH: 0.07528 YAW: 6.09897 SONAR1: 0.00000 MEDIANFILTERED: 0.00000 MEDIANDIFF: 0.00000 MEDIANINT: 0.00000 RAWSONAR: 0.00000 ROLLRATE: 0.01000 PITCHRATE: 0.02000 U1: 0.01000 U2: 0.02000 U3: 0.00000 U4: 0.00000 MDuty1: 0 MDuty2: 0 MDuty3: 0 MDuty4: 0 ChDuty1: 257492 ChDuty2: 228563 ChDuty3: 229563 ChDuty4: 12 DesiredAltitude: 1.00 HoverMode: 1.000000 flightAllow: 1.000000  TIME:Wed Jul  3 15:56:43 2013

ROLL: -0.00851 PITCH: 0.07528 YAW: 6.09897 SONAR1: 0.00000 MEDIANFILTERED: 0.00000 MEDIANDIFF: 0.00000 MEDIANINT: 0.00000 RAWSONAR: 0.00000 ROLLRATE: 0.01000 PITCHRATE: 0.02000 U1: 0.01000 U2: 0.02000 U3: 0.00000 U4: 0.00000 MDuty1: 0 MDuty2: 0 MDuty3: 0 MDuty4: 0 ChDuty1: 257492 ChDuty2: 228563 ChDuty3: 229563 ChDuty4: 12 DesiredAltitude: 1.00 HoverMode: 1.000000 flightAllow: 1.000000  TIME:Wed Jul  3 15:56:43 2013

ROLL: -0.00851 PITCH: 0.07528 YAW: 6.09897 SONAR1: 0.00000 MEDIANFILTERED: 0.00000 MEDIANDIFF: 0.00000 MEDIANINT: 0.00000 RAWSONAR: 0.00000 ROLLRATE: 0.01000 PITCHRATE: 0.02000 U1: 0.01000 U2: 0.02000 U3: 0.00000 U4: 0.00000 MDuty1: 0 MDuty2: 0 MDuty3: 0 MDuty4: 0 ChDuty1: 257492 ChDuty2: 228563 ChDuty3: 229563 ChDuty4: 12 DesiredAltitude: 1.00 HoverMode: 1.000000 flightAllow: 1.000000  TIME:Wed Jul  3 15:56:43 2013

ROLL: -0.00851 PITCH: 0.07528 YAW: 6.09897 SONAR1: 0.00000 MEDIANFILTERED: 0.00000 MEDIANDIFF: 0.00000 MEDIANINT: 0.00000 RAWSONAR: 0.00000 ROLLRATE: 0.01000 PITCHRATE: 0.02000 U1: 0.01000 U2: 0.02000 U3: 0.00000 U4: 0.00000 MDuty1: 0 MDuty2: 0 MDuty3: 0 MDuty4: 0 ChDuty1: 257492 ChDuty2: 228563 ChDuty3: 229563 ChDuty4: 12 DesiredAltitude: 1.00 HoverMode: 1.000000 flightAllow: 1.000000  TIME:Wed Jul  3 15:56:43 2013

ROLL: -0.00851 PITCH: 0.07528 YAW: 6.09897 SONAR1: 0.00000 MEDIANFILTERED: 0.00000 MEDIANDIFF: 0.00000 MEDIANINT: 0.00000 RAWSONAR: 0.00000 ROLLRATE: 0.01000 PITCHRATE: 0.02000 U1: 0.01000 U2: 0.02000 U3: 0.00000 U4: 0.00000 MDuty1: 0 MDuty2: 0 MDuty3: 0 MDuty4: 0 ChDuty1: 257492 ChDuty2: 228563 ChDuty3: 229563 ChDuty4: 12 DesiredAltitude: 1.00 HoverMode: 1.000000 flightAllow: 1.000000  TIME:Wed Jul  3 15:56:43 2013

ROLL: -0.00851 PITCH: 0.07528 YAW: 6.09897 SONAR1: 0.00000 MEDIANFILTERED: 0.00000 MEDIANDIFF: 0.00000 MEDIANINT: 0.00000 RAWSONAR: 0.00000 ROLLRATE: 0.01000 PITCHRATE: 0.02000 U1: 0.01000 U2: 0.02000 U3: 0.00000 U4: 0.00000 MDuty1: 0 MDuty2: 0 MDuty3: 0 MDuty4: 0 ChDuty1: 257492 ChDuty2: 228563 ChDuty3: 229563 ChDuty4: 12 DesiredAltitude: 1.00 HoverMode: 1.000000 flightAllow: 1.000000  TIME:Wed Jul  3 15:56:44 2013

ROLL: -0.00851 PITCH: 0.07528 YAW: 6.09897 SONAR1: 0.00000 MEDIANFILTERED: 0.00000 MEDIANDIFF: 0.00000 MEDIANINT: 0.00000 RAWSONAR: 0.00000 ROLLRATE: 0.01000 PITCHRATE: 0.02000 U1: 0.01000 U2: 0.02000 U3: 0.00000 U4: 0.00000 MDuty1: 0 MDuty2: 0 MDuty3: 0 MDuty4: 0 ChDuty1: 257492 ChDuty2: 228563 ChDuty3: 229563 ChDuty4: 12 DesiredAltitude: 1.00 HoverMode: 1.000000 flightAllow: 1.000000  TIME:Wed Jul  3 15:56:44 2013

ROLL: -0.00851 PITCH: 0.07528 YAW: 6.09897 SONAR1: 0.00000 MEDIANFILTERED: 0.00000 MEDIANDIFF: 0.00000 MEDIANINT: 0.00000 RAWSONAR: 0.00000 ROLLRATE: 0.01000 PITCHRATE: 0.02000 U1: 0.01000 U2: 0.02000 U3: 0.00000 U4: 0.00000 MDuty1: 0 MDuty2: 0 MDuty3: 0 MDuty4: 0 ChDuty1: 257492 ChDuty2: 228563 ChDuty3: 229563 ChDuty4: 12 DesiredAltitude: 1.00 HoverMode: 1.000000 flightAllow: 1.000000  TIME:Wed Jul  3 15:56:44 2013

ROLL: -0.00851 PITCH: 0.07528 YAW: 6.09897 SONAR1: 0.00000 MEDIANFILTERED: 0.00000 MEDIANDIFF: 0.00000 MEDIANINT: 0.00000 RAWSONAR: 0.00000 ROLLRATE: 0.01000 PITCHRATE: 0.02000 U1: 0.01000 U2: 0.02000 U3: 0.00000 U4: 0.00000 MDuty1: 0 MDuty2: 0 MDuty3: 0 MDuty4: 0 ChDuty1: 257492 ChDuty2: 228563 ChDuty3: 229563 ChDuty4: 12 DesiredAltitude: 1.00 HoverMode: 1.000000 flightAllow: 1.000000  TIME:Wed Jul  3 15:56:44 2013

ROLL: -0.00851 PITCH: 0.07528 YAW: 6.09897 SONAR1: 0.00000 MEDIANFILTERED: 0.00000 MEDIANDIFF: 0.00000 MEDIANINT: 0.00000 RAWSONAR: 0.00000 ROLLRATE: 0.01000 PITCHRATE: 0.02000 U1: 0.01000 U2: 0.02000 U3: 0.00000 U4: 0.00000 MDuty1: 0 MDuty2: 0 MDuty3: 0 MDuty4: 0 ChDuty1: 257492 ChDuty2: 228563 ChDuty3: 229563 ChDuty4: 12 DesiredAltitude: 1.00 HoverMode: 1.000000 flightAllow: 1.000000  TIME:Wed Jul  3 15:56:44 2013

ROLL: -0.00851 PITCH: 0.07528 YAW: 6.09897 SONAR1: 0.00000 MEDIANFILTERED: 0.00000 MEDIANDIFF: 0.00000 MEDIANINT: 0.00000 RAWSONAR: 0.00000 ROLLRATE: 0.01000 PITCHRATE: 0.02000 U1: 0.01000 U2: 0.02000 U3: 0.00000 U4: 0.00000 MDuty1: 0 MDuty2: 0 MDuty3: 0 MDuty4: 0 ChDuty1: 257492 ChDuty2: 228563 ChDuty3: 229563 ChDuty4: 12 DesiredAltitude: 1.00 HoverMode: 1.000000 flightAllow: 1.000000  TIME:Wed Jul  3 15:56:44 2013

ROLL: -0.00851 PITCH: 0.07528 YAW: 6.09897 SONAR1: 0.00000 MEDIANFILTERED: 0.00000 MEDIANDIFF: 0.00000 MEDIANINT: 0.00000 RAWSONAR: 0.00000 ROLLRATE: 0.01000 PITCHRATE: 0.02000 U1: 0.01000 U2: 0.02000 U3: 0.00000 U4: 0.00000 MDuty1: 0 MDuty2: 0 MDuty3: 0 MDuty4: 0 ChDuty1: 257492 ChDuty2: 228563 ChDuty3: 229563 ChDuty4: 12 DesiredAltitude: 1.00 HoverMode: 1.000000 flightAllow: 1.000000  TIME:Wed Jul  3 15:56:44 2013

ROLL: -0.00851 PITCH: 0.07528 YAW: 6.09897 SONAR1: 0.00000 MEDIANFILTERED: 0.00000 MEDIANDIFF: 0.00000 MEDIANINT: 0.00000 RAWSONAR: 0.00000 ROLLRATE: 0.01000 PITCHRATE: 0.02000 U1: 0.01000 U2: 0.02000 U3: 0.00000 U4: 0.00000 MDuty1: 0 MDuty2: 0 MDuty3: 0 MDuty4: 0 ChDuty1: 257492 ChDuty2: 228563 ChDuty3: 229563 ChDuty4: 12 DesiredAltitude: 1.00 HoverMode: 1.000000 flightAllow: 1.000000  TIME:Wed Jul  3 15:56:44 2013

ROLL: -0.00851 PITCH: 0.07528 YAW: 6.09897 SONAR1: 0.00000 MEDIANFILTERED: 0.00000 MEDIANDIFF: 0.00000 MEDIANINT: 0.00000 RAWSONAR: 0.00000 ROLLRATE: 0.01000 PITCHRATE: 0.02000 U1: 0.01000 U2: 0.02000 U3: 0.00000 U4: 0.00000 MDuty1: 0 MDuty2: 0 MDuty3: 0 MDuty4: 0 ChDuty1: 257492 ChDuty2: 228563 ChDuty3: 229563 ChDuty4: 12 DesiredAltitude: 1.00 HoverMode: 1.000000 flightAllow: 1.000000  TIME:Wed Jul  3 15:56:44 2013

ROLL: -0.00851 PITCH: 0.07528 YAW: 6.09897 SONAR1: 0.00000 MEDIANFILTERED: 0.00000 MEDIANDIFF: 0.00000 MEDIANINT: 0.00000 RAWSONAR: 0.00000 ROLLRATE: 0.01000 PITCHRATE: 0.02000 U1: 0.01000 U2: 0.02000 U3: 0.00000 U4: 0.00000 MDuty1: 0 MDuty2: 0 MDuty3: 0 MDuty4: 0 ChDuty1: 257492 ChDuty2: 228563 ChDuty3: 229563 ChDuty4: 12 DesiredAltitude: 1.00 HoverMode: 1.000000 flightAllow: 1.000000  TIME:Wed Jul  3 15:56:44 2013

ROLL: -0.00851 PITCH: 0.07528 YAW: 6.09897 SONAR1: 0.00000 MEDIANFILTERED: 0.00000 MEDIANDIFF: 0.00000 MEDIANINT: 0.00000 RAWSONAR: 0.00000 ROLLRATE: 0.01000 PITCHRATE: 0.02000 U1: 0.01000 U2: 0.02000 U3: 0.00000 U4: 0.00000 MDuty1: 0 MDuty2: 0 MDuty3: 0 MDuty4: 0 ChDuty1: 257492 ChDuty2: 228563 ChDuty3: 229563 ChDuty4: 12 DesiredAltitude: 1.00 HoverMode: 1.000000 flightAllow: 1.000000  TIME:Wed Jul  3 15:56:45 2013

ROLL: -0.00851 PITCH: 0.07528 YAW: 6.09897 SONAR1: 0.00000 MEDIANFILTERED: 0.00000 MEDIANDIFF: 0.00000 MEDIANINT: 0.00000 RAWSONAR: 0.00000 ROLLRATE: 0.01000 PITCHRATE: 0.02000 U1: 0.01000 U2: 0.02000 U3: 0.00000 U4: 0.00000 MDuty1: 0 MDuty2: 0 MDuty3: 0 MDuty4: 0 ChDuty1: 257492 ChDuty2: 228563 ChDuty3: 229563 ChDuty4: 12 DesiredAltitude: 1.00 HoverMode: 1.000000 flightAllow: 1.000000  TIME:Wed Jul  3 15:56:45 2013

ROLL: -0.00851 PITCH: 0.07528 YAW: 6.09897 SONAR1: 0.00000 MEDIANFILTERED: 0.00000 MEDIANDIFF: 0.00000 MEDIANINT: 0.00000 RAWSONAR: 0.00000 ROLLRATE: 0.01000 PITCHRATE: 0.02000 U1: 0.01000 U2: 0.02000 U3: 0.00000 U4: 0.00000 MDuty1: 0 MDuty2: 0 MDuty3: 0 MDuty4: 0 ChDuty1: 257492 ChDuty2: 228563 ChDuty3: 229563 ChDuty4: 12 DesiredAltitude: 1.00 HoverMode: 1.000000 flightAllow: 1.000000  TIME:Wed Jul  3 15:56:45 2013

ROLL: -0.00851 PITCH: 0.07528 YAW: 6.09897 SONAR1: 0.00000 MEDIANFILTERED: 0.00000 MEDIANDIFF: 0.00000 MEDIANINT: 0.00000 RAWSONAR: 0.00000 ROLLRATE: 0.01000 PITCHRATE: 0.02000 U1: 0.01000 U2: 0.02000 U3: 0.00000 U4: 0.00000 MDuty1: 0 MDuty2: 0 MDuty3: 0 MDuty4: 0 ChDuty1: 257492 ChDuty2: 228563 ChDuty3: 229563 ChDuty4: 12 DesiredAltitude: 1.00 HoverMode: 1.000000 flightAllow: 1.000000  TIME:Wed Jul  3 15:56:45 2013

ROLL: -0.00851 PITCH: 0.07528 YAW: 6.09897 SONAR1: 0.00000 MEDIANFILTERED: 0.00000 MEDIANDIFF: 0.00000 MEDIANINT: 0.00000 RAWSONAR: 0.00000 ROLLRATE: 0.01000 PITCHRATE: 0.02000 U1: 0.01000 U2: 0.02000 U3: 0.00000 U4: 0.00000 MDuty1: 0 MDuty2: 0 MDuty3: 0 MDuty4: 0 ChDuty1: 257492 ChDuty2: 228563 ChDuty3: 229563 ChDuty4: 12 DesiredAltitude: 1.00 HoverMode: 1.000000 flightAllow: 1.000000  TIME:Wed Jul  3 15:56:45 2013

ROLL: -0.00851 PITCH: 0.07528 YAW: 6.09897 SONAR1: 0.00000 MEDIANFILTERED: 0.00000 MEDIANDIFF: 0.00000 MEDIANINT: 0.00000 RAWSONAR: 0.00000 ROLLRATE: 0.01000 PITCHRATE: 0.02000 U1: 0.01000 U2: 0.02000 U3: 0.00000 U4: 0.00000 MDuty1: 0 MDuty2: 0 MDuty3: 0 MDuty4: 0 ChDuty1: 257492 ChDuty2: 228563 ChDuty3: 229563 ChDuty4: 12 DesiredAltitude: 1.00 HoverMode: 1.000000 flightAllow: 1.000000  TIME:Wed Jul  3 15:56:45 2013

ROLL: -0.00851 PITCH: 0.07528 YAW: 6.09897 SONAR1: 0.00000 MEDIANFILTERED: 0.00000 MEDIANDIFF: 0.00000 MEDIANINT: 0.00000 RAWSONAR: 0.00000 ROLLRATE: 0.01000 PITCHRATE: 0.02000 U1: 0.01000 U2: 0.02000 U3: 0.00000 U4: 0.00000 MDuty1: 0 MDuty2: 0 MDuty3: 0 MDuty4: 0 ChDuty1: 257492 ChDuty2: 228563 ChDuty3: 229563 ChDuty4: 12 DesiredAltitude: 1.00 HoverMode: 1.000000 flightAllow: 1.000000  TIME:Wed Jul  3 15:56:45 2013

ROLL: -0.00851 PITCH: 0.07528 YAW: 6.09897 SONAR1: 0.00000 MEDIANFILTERED: 0.00000 MEDIANDIFF: 0.00000 MEDIANINT: 0.00000 RAWSONAR: 0.00000 ROLLRATE: 0.01000 PITCHRATE: 0.02000 U1: 0.01000 U2: 0.02000 U3: 0.00000 U4: 0.00000 MDuty1: 0 MDuty2: 0 MDuty3: 0 MDuty4: 0 ChDuty1: 257492 ChDuty2: 228563 ChDuty3: 229563 ChDuty4: 12 DesiredAltitude: 1.00 HoverMode: 1.000000 flightAllow: 1.000000  TIME:Wed Jul  3 15:56:45 2013

ROLL: -0.00851 PITCH: 0.07528 YAW: 6.09897 SONAR1: 0.00000 MEDIANFILTERED: 0.00000 MEDIANDIFF: 0.00000 MEDIANINT: 0.00000 RAWSONAR: 0.00000 ROLLRATE: 0.01000 PITCHRATE: 0.02000 U1: 0.01000 U2: 0.02000 U3: 0.00000 U4: 0.00000 MDuty1: 0 MDuty2: 0 MDuty3: 0 MDuty4: 0 ChDuty1: 257492 ChDuty2: 228563 ChDuty3: 229563 ChDuty4: 12 DesiredAltitude: 1.00 HoverMode: 1.000000 flightAllow: 1.000000  TIME:Wed Jul  3 15:56:45 2013

ROLL: -0.00851 PITCH: 0.07528 YAW: 6.09897 SONAR1: 0.00000 MEDIANFILTERED: 0.00000 MEDIANDIFF: 0.00000 MEDIANINT: 0.00000 RAWSONAR: 0.00000 ROLLRATE: 0.01000 PITCHRATE: 0.02000 U1: 0.01000 U2: 0.02000 U3: 0.00000 U4: 0.00000 MDuty1: 0 MDuty2: 0 MDuty3: 0 MDuty4: 0 ChDuty1: 257492 ChDuty2: 228563 ChDuty3: 229563 ChDuty4: 12 DesiredAltitude: 1.00 HoverMode: 1.000000 flightAllow: 1.000000  TIME:Wed Jul  3 15:56:45 2013

ROLL: -0.00851 PITCH: 0.07528 YAW: 6.09897 SONAR1: 0.00000 MEDIANFILTERED: 0.00000 MEDIANDIFF: 0.00000 MEDIANINT: 0.00000 RAWSONAR: 0.00000 ROLLRATE: 0.01000 PITCHRATE: 0.02000 U1: 0.01000 U2: 0.02000 U3: 0.00000 U4: 0.00000 MDuty1: 0 MDuty2: 0 MDuty3: 0 MDuty4: 0 ChDuty1: 257492 ChDuty2: 228563 ChDuty3: 229563 ChDuty4: 12 DesiredAltitude: 1.00 HoverMode: 1.000000 flightAllow: 1.000000  TIME:Wed Jul  3 15:56:46 2013

ROLL: -0.00851 PITCH: 0.07528 YAW: 6.09897 SONAR1: 0.00000 MEDIANFILTERED: 0.00000 MEDIANDIFF: 0.00000 MEDIANINT: 0.00000 RAWSONAR: 0.00000 ROLLRATE: 0.01000 PITCHRATE: 0.02000 U1: 0.01000 U2: 0.02000 U3: 0.00000 U4: 0.00000 MDuty1: 0 MDuty2: 0 MDuty3: 0 MDuty4: 0 ChDuty1: 257492 ChDuty2: 228563 ChDuty3: 229563 ChDuty4: 12 DesiredAltitude: 1.00 HoverMode: 1.000000 flightAllow: 1.000000  TIME:Wed Jul  3 15:56:46 2013

ROLL: -0.00851 PITCH: 0.07528 YAW: 6.09897 SONAR1: 0.00000 MEDIANFILTERED: 0.00000 MEDIANDIFF: 0.00000 MEDIANINT: 0.00000 RAWSONAR: 0.00000 ROLLRATE: 0.01000 PITCHRATE: 0.02000 U1: 0.01000 U2: 0.02000 U3: 0.00000 U4: 0.00000 MDuty1: 0 MDuty2: 0 MDuty3: 0 MDuty4: 0 ChDuty1: 257492 ChDuty2: 228563 ChDuty3: 229563 ChDuty4: 12 DesiredAltitude: 1.00 HoverMode: 1.000000 flightAllow: 1.000000  TIME:Wed Jul  3 15:56:46 2013

